24 Variabili casuali
…
Utilizzando il tidyverse, possiamo creare un DataFrame contenente i risultati della simulazione e calcolare la distribuzione empirica delle probabilità. Per fare ciò, calcoliamo le frequenze assolute dei risultati, le normalizziamo dividendo per il numero totale di simulazioni e assicuriamo che siano rappresentati tutti i possibili valori (da 2 a 12).

# Converti i risultati in un DataFrame (tibble)
df <- tibble(y = res)

# Calcola la distribuzione empirica delle probabilità
empirical_probs <- df %>%
  count(y) %>%                             # Calcola le frequenze assolute
  complete(y = 2:12, fill = list(n = 0)) %>% # Assicura che tutti i valori siano inclusi
  mutate(prob = n / nrolls)                # Calcola le probabilità relative

# Visualizza la distribuzione empirica
empirical_probs %>%
  dplyr::select(y, prob)
#> # A tibble: 11 × 2
#>       y   prob
#>   <dbl>  <dbl>
#> 1     2 0.0282
#> 2     3 0.0566
#> 3     4 0.0849
#> 4     5 0.111 
#> 5     6 0.139 
#> 6     7 0.165 
#> # ℹ 5 more rows
…
