64 Modello bayesiano di regressione lineare bivariata
…
# Definizione delle variabili
x <- 1:20
n <- length(x)
a <- 0.2
b <- 0.3
sigma <- 0.5

# Generazione di y
y <- a + b * x + sigma * rnorm(n)

# Creazione del dataframe
fake <- tibble(x = x, y = y)
head(fake)
#> # A tibble: 6 × 2
#>       x     y
#>   <int> <dbl>
#> 1     1 0.220
#> 2     2 0.685
#> 3     3 1.88 
#> 4     4 1.44 
#> 5     5 1.76 
#> # ℹ 1 more row
…
