13 Relazioni tra variabili: correlazione e covarianza – Psicometria
…
datasaurus_data <- read.csv("../../data/datasaurus.csv")

datasaurus_summary <- datasaurus_data %>%
  group_by(dataset) %>%
  summarise(
    x_count = n(),
    x_mean = mean(x, na.rm = TRUE),
    x_std = sd(x, na.rm = TRUE),
    y_count = n(),
    y_mean = mean(y, na.rm = TRUE),
    y_std = sd(y, na.rm = TRUE)
  )

print(datasaurus_summary)
#> # A tibble: 13 × 7
#>   dataset  x_count x_mean x_std y_count y_mean y_std
#>   <chr>      <int>  <dbl> <dbl>   <int>  <dbl> <dbl>
#> 1 away         142   54.3  16.8     142   47.8  26.9
#> 2 bullseye     142   54.3  16.8     142   47.8  26.9
#> 3 circle       142   54.3  16.8     142   47.8  26.9
#> 4 dino         142   54.3  16.8     142   47.8  26.9
#> 5 dots         142   54.3  16.8     142   47.8  26.9
#> 6 h_lines      142   54.3  16.8     142   47.8  26.9
#> # ℹ 7 more rows
…
