80 Estensioni – Psicometria
…
Questo modello genera un insieme di campioni posteriori per i parametri \(\alpha\) e \(\beta\), uno per ciascun partecipante. I primi due grafici mostrano gli intervalli credibili al 95% per \(\alpha\) e \(\beta\) relativi a ogni partecipante. Come si può osservare, emerge un’eterogeneità tra i partecipanti sia per il parametro \(\alpha\) che per \(\beta\). Il pannello di destra mostra i parametri \(\alpha\) e \(\beta\) di ciascun partecipante tracciati l’uno contro l’altro (con le croci che rappresentano gli intervalli credibili per ciascun parametro).

# Estrazione dei campioni
standraws <- fit1$draws(format = "draws_matrix")

# Statistiche descrittive
standraws |> 
  subset_draws(variable = c("alpha", "beta", "sigma")) |> 
  summarise_draws(
    mean,
    ~ quantile(.x, probs = c(0.025, 0.5, 0.975))
  ) |> 
  print()
#> # A tibble: 121 × 5
#>    variable   mean `2.5%` `50%` `97.5%`
#>    <chr>     <dbl>  <dbl> <dbl>   <dbl>
#>  1 alpha[1]   0.61   0.06  0.63    1.01
#>  2 alpha[2]   0.19  -0.25  0.19    0.60
#>  3 alpha[3]   0.14  -0.28  0.16    0.49
#>  4 alpha[4]   0.36  -0.29  0.38    0.95
#>  5 alpha[5]   0.37   0.03  0.37    0.69
#>  6 alpha[6]   0.60   0.08  0.61    1.06
#>  7 alpha[7]   0.40   0.09  0.39    0.73
#>  8 alpha[8]   0.11  -0.09  0.11    0.34
#>  9 alpha[9]   0.46  -0.03  0.47    0.90
#> 10 alpha[10]  0.77   0.41  0.78    1.07
#> # ℹ 111 more rows
…
80.2.3 Analisi dei risultati

Eseguiamo l’analisi dei risultati seguendo lo schema usato sopra.

# Estrazione dei campioni posteriori come matrice (opzionale)
standraws <- fit2$draws(format = "draws_matrix")

# Statistiche descrittive aggregate
standraws |> 
  subset_draws(variable = c("alpha", "beta", "sigma", "alpha_mean", "beta_mean", "alpha_sd", "beta_sd")) |> 
  summarise_draws(
    mean,
    ~ quantile(.x, probs = c(0.025, 0.5, 0.975))
  )
#> # A tibble: 125 × 5
#>    variable   mean `2.5%` `50%` `97.5%`
#>    <chr>     <dbl>  <dbl> <dbl>   <dbl>
#>  1 alpha[1]   0.54   0.27  0.55    0.81
#>  2 alpha[2]   0.38   0.11  0.39    0.63
#>  3 alpha[3]   0.33   0.08  0.33    0.56
#>  4 alpha[4]   0.47   0.18  0.47    0.76
#>  5 alpha[5]   0.36   0.13  0.36    0.59
#>  6 alpha[6]   0.54   0.27  0.54    0.82
#>  7 alpha[7]   0.44   0.22  0.44    0.67
#>  8 alpha[8]   0.24   0.04  0.23    0.45
#>  9 alpha[9]   0.48   0.21  0.48    0.73
#> 10 alpha[10]  0.63   0.40  0.63    0.88
#> # ℹ 115 more rows
…
