74 Oltre la regressione logistica: modelli di scelta con Stan e R – Psicometria
…
Codice
# Rhat e ESS sintetici
fit_hier$summary(c("alpha_mu","alpha_sigma","beta","phi","sigma_u"))
#> # A tibble: 104 × 10
#>    variable     mean median    sd   mad    q5   q95  rhat ess_bulk ess_tail
#>    <chr>       <dbl>  <dbl> <dbl> <dbl> <dbl> <dbl> <dbl>    <dbl>    <dbl>
#>  1 alpha_mu     0.05   0.04  0.09  0.09 -0.09  0.21  1.04    70.90   621.31
#>  2 alpha_sigma  0.72   0.70  0.17  0.17  0.43  1.01  1.24    12.32    16.32
#>  3 beta[1]      0.59   0.54  0.27  0.17  0.28  1.23  1.11    23.24    17.39
#>  4 beta[2]      0.39   0.42  0.23  0.20 -0.01  0.72  1.05    65.17   146.47
#>  5 beta[3]      0.45   0.45  0.24  0.19  0.07  0.90  1.14    18.80    19.05
#>  6 beta[4]      0.50   0.48  0.23  0.17  0.18  0.94  1.11    22.60    19.38
#>  7 beta[5]      0.49   0.50  0.19  0.16  0.19  0.78  1.01   280.73  1748.96
#>  8 beta[6]      0.46   0.46  0.22  0.19  0.06  0.80  1.05    57.17    45.99
#>  9 beta[7]      0.52   0.50  0.22  0.19  0.21  0.95  1.10    26.31    42.00
#> 10 beta[8]      0.54   0.51  0.21  0.18  0.26  0.92  1.04    75.15  2069.58
#> # ℹ 94 more rows
…
